<?xml version="1.0" encoding="UTF-8" ?>
<!DOCTYPE svg PUBLIC "-//W3C//DTD SVG 1.1//EN" "http://www.w3.org/Graphics/SVG/1.1/DTD/svg11.dtd">
<svg width="249pt" height="204pt" viewBox="0 0 249 204" version="1.1" xmlns="http://www.w3.org/2000/svg">
<g id="#000000ff">
<path fill="#000000" opacity="1.00" d=" M 0.00 0.00 L 0.25 0.00 C 0.19 0.05 0.06 0.15 0.00 0.20 L 0.00 0.00 Z" />
<path fill="#000000" opacity="1.00" d=" M 49.47 0.00 L 49.81 0.00 C 49.67 0.15 49.39 0.45 49.25 0.60 C 69.43 5.82 90.26 7.81 111.02 8.83 C 121.77 8.70 132.30 11.29 143.01 11.93 C 165.35 14.04 187.81 14.83 210.06 17.88 C 223.03 18.36 236.04 17.36 249.00 18.25 L 249.00 18.70 C 248.07 20.07 247.68 21.70 247.21 23.27 C 245.17 30.79 242.22 38.03 239.48 45.31 C 239.13 43.60 238.58 41.92 236.67 41.47 C 238.58 35.80 240.20 30.02 241.19 24.11 C 226.64 21.37 211.74 22.40 197.04 21.72 C 194.52 21.63 191.65 22.73 189.44 21.06 C 185.74 20.83 182.00 21.28 178.33 20.70 C 164.82 17.82 150.87 16.65 137.10 17.81 C 137.07 17.36 137.02 16.45 136.99 16.00 C 135.00 16.00 133.02 16.00 131.04 16.00 C 131.03 15.50 131.01 14.50 131.00 14.00 C 122.61 14.51 114.35 12.69 105.97 12.95 C 87.69 11.57 68.94 11.22 51.47 5.01 C 43.43 23.47 37.80 42.87 32.23 62.18 C 22.76 96.10 14.94 130.50 3.79 163.93 C 14.94 167.54 25.35 173.03 36.42 176.82 C 37.36 172.39 36.28 167.67 38.17 163.45 C 39.41 162.93 40.80 162.59 41.80 161.63 C 42.17 159.22 41.89 156.76 42.29 154.35 C 45.93 133.91 51.53 113.84 54.23 93.23 C 54.91 86.31 56.71 79.41 60.53 73.52 C 67.60 61.75 81.06 53.83 94.97 55.01 C 94.98 55.51 94.99 56.50 95.00 57.00 C 95.69 57.00 97.07 57.01 97.76 57.01 C 98.77 59.10 99.93 61.13 100.77 63.30 C 101.64 68.18 99.99 73.01 99.93 77.89 C 99.71 78.51 99.28 79.75 99.07 80.37 C 100.67 85.66 105.70 89.34 106.34 95.01 C 106.19 95.46 105.89 96.35 105.74 96.79 C 102.89 97.22 100.01 96.56 97.14 96.64 C 98.23 98.55 99.99 99.38 102.11 99.29 C 102.08 101.22 102.02 103.15 101.87 105.08 C 101.16 105.02 99.73 104.91 99.02 104.86 C 99.80 101.17 96.79 98.67 95.10 95.81 C 93.60 93.68 94.82 90.69 96.99 89.57 C 98.19 91.28 97.86 93.46 98.03 95.42 C 99.21 95.86 100.39 96.30 101.59 96.71 C 101.06 92.04 101.29 87.26 100.00 82.70 C 99.35 82.40 98.70 82.11 98.05 81.80 C 96.79 86.19 93.98 89.87 91.60 93.68 C 86.26 101.44 80.32 108.75 74.67 116.27 C 89.14 118.84 102.79 124.82 117.37 126.87 C 116.98 125.07 116.90 123.16 115.98 121.52 C 114.61 121.70 113.56 123.03 112.17 122.92 C 110.38 122.11 108.75 120.99 107.04 120.03 C 105.79 120.38 104.58 120.98 103.26 121.00 C 100.47 118.89 101.06 114.19 98.08 112.51 C 95.22 113.56 94.74 117.08 93.14 119.35 C 90.39 118.38 89.49 115.81 88.93 113.20 C 87.93 114.73 87.09 116.36 86.25 117.99 C 85.72 111.22 91.74 105.80 90.72 98.92 C 91.71 98.44 92.74 98.13 93.82 98.01 C 95.38 99.29 94.86 101.42 95.06 103.17 C 96.39 103.71 97.67 104.36 99.02 104.86 C 98.29 105.09 97.56 105.31 96.83 105.52 C 96.20 104.70 95.56 103.90 94.90 103.11 C 94.76 107.04 91.00 110.89 92.84 114.71 C 93.90 113.35 94.75 111.85 95.33 110.22 C 97.69 110.98 100.00 111.93 102.17 113.14 C 102.61 111.96 103.06 110.78 103.51 109.60 C 107.23 112.92 107.69 119.42 113.05 120.93 C 115.01 118.46 113.56 114.85 113.98 111.92 C 114.73 111.85 116.21 111.69 116.96 111.61 C 115.87 118.12 120.26 123.68 120.34 130.04 C 120.48 133.04 118.35 135.49 115.79 136.75 C 104.46 142.94 93.18 149.51 83.62 158.27 C 88.21 165.12 97.22 166.19 104.78 165.62 C 105.45 160.80 105.35 155.74 107.22 151.18 C 108.43 148.15 111.63 146.53 114.80 146.83 C 115.65 148.88 116.50 150.93 117.36 152.98 C 119.59 153.25 122.49 152.54 123.07 150.05 C 124.36 145.41 124.43 140.49 126.15 135.95 C 137.40 135.66 148.55 134.11 159.55 131.82 C 156.72 145.97 151.76 159.68 150.10 174.06 C 150.05 177.63 149.97 182.53 145.79 183.80 C 139.60 184.70 133.48 182.90 127.34 182.37 C 122.23 182.02 117.86 179.15 113.98 176.06 C 115.27 172.47 116.39 168.79 116.70 164.97 C 113.75 167.34 113.61 171.73 110.41 173.95 C 107.94 171.19 105.19 167.55 101.02 167.94 C 99.18 167.76 96.95 168.83 97.36 171.00 C 97.30 177.73 95.73 184.69 91.17 189.86 C 84.43 186.74 75.87 186.26 70.93 180.11 C 68.78 177.62 69.52 171.76 65.11 172.04 C 60.09 173.88 55.63 178.41 54.73 183.80 C 73.05 188.27 90.86 195.54 109.86 196.62 C 115.27 197.27 120.61 195.84 126.02 195.93 C 131.38 195.94 136.70 196.83 142.06 196.83 C 158.05 197.05 174.34 195.82 189.91 200.31 C 194.97 183.19 196.44 165.25 201.23 148.06 C 202.49 143.39 202.48 138.48 203.87 133.84 C 207.18 121.98 213.48 110.96 214.60 98.54 C 219.03 89.46 223.98 80.35 225.28 70.16 C 228.06 61.63 232.19 53.60 235.21 45.15 C 236.62 45.42 238.05 45.44 239.48 45.31 C 233.95 57.95 228.75 70.78 224.96 84.06 C 209.94 122.24 201.43 162.54 193.99 202.77 C 192.66 202.88 191.45 203.29 190.35 204.00 L 176.85 204.00 C 174.18 202.32 170.94 203.17 167.98 202.99 C 162.35 202.78 156.57 203.70 151.08 202.09 C 138.42 201.79 125.74 202.21 113.09 201.90 C 104.43 200.87 95.64 201.31 87.04 199.74 C 84.26 198.86 81.33 198.92 78.45 198.94 C 77.49 198.33 76.54 197.73 75.59 197.12 C 75.08 197.04 74.08 196.86 73.58 196.78 C 71.88 196.20 70.13 195.79 68.43 195.24 C 67.93 195.14 66.94 194.94 66.45 194.84 C 65.49 194.31 64.54 193.78 63.58 193.26 C 62.51 192.94 61.46 192.60 60.41 192.23 C 59.92 192.13 58.95 191.93 58.46 191.82 C 54.90 189.44 50.70 188.45 46.54 187.77 C 45.16 187.25 43.78 186.76 42.44 186.16 C 41.96 186.08 41.02 185.91 40.55 185.83 C 38.08 183.60 34.93 182.45 32.01 180.97 C 23.05 176.61 14.19 171.58 4.27 169.76 C 2.64 169.33 0.52 169.37 0.01 167.37 L 0.00 168.10 L 0.00 163.46 C 1.96 155.69 6.08 148.67 7.85 140.84 C 21.21 93.76 30.66 45.36 49.47 0.00 M 81.11 59.80 C 79.71 60.79 78.06 61.61 77.21 63.18 C 77.65 65.03 80.13 65.08 81.63 65.60 C 82.53 66.26 83.42 66.94 84.29 67.63 C 86.50 70.31 88.41 73.44 88.78 76.97 C 89.11 79.08 87.70 81.01 87.96 83.11 C 90.39 84.04 92.71 81.98 94.75 80.89 C 97.05 79.88 96.17 77.07 96.27 75.11 C 97.90 72.74 98.64 69.99 98.27 67.12 C 94.96 60.90 87.69 58.91 81.11 59.80 M 76.02 66.66 C 75.65 67.10 74.91 67.97 74.54 68.41 C 73.46 68.71 72.41 69.06 71.37 69.47 C 70.84 69.61 69.77 69.89 69.23 70.03 C 67.20 72.61 63.58 74.35 63.80 78.15 C 67.23 77.35 70.89 76.05 72.65 72.73 C 73.65 71.95 74.66 71.18 75.67 70.42 C 76.83 70.32 78.00 70.21 79.16 70.11 C 79.19 69.28 79.27 67.62 79.31 66.80 C 78.48 66.76 76.84 66.69 76.02 66.66 M 85.60 75.31 C 85.13 76.27 84.67 77.23 84.21 78.19 C 84.48 78.54 85.03 79.23 85.30 79.57 C 87.44 78.84 87.69 76.29 85.60 75.31 M 61.06 83.26 C 61.17 86.77 62.68 90.59 66.19 91.93 C 71.04 94.27 76.91 92.01 80.10 87.98 C 77.36 84.89 76.37 80.51 72.98 77.97 C 69.05 79.83 64.98 81.38 61.06 83.26 M 57.80 88.55 C 57.63 90.42 58.24 92.59 56.94 94.18 C 56.44 99.56 55.51 105.03 54.00 110.19 C 53.64 111.84 54.14 113.82 52.90 115.18 C 52.71 116.86 52.96 118.68 52.10 120.21 C 51.85 121.88 51.87 123.65 51.00 125.16 C 50.26 130.19 49.33 135.26 48.09 140.20 C 46.62 147.92 45.68 155.64 44.33 163.37 C 43.10 167.34 44.22 171.53 43.59 175.59 C 42.02 175.72 40.45 175.84 38.89 175.98 C 39.58 180.86 45.60 182.87 49.93 182.19 C 51.06 179.41 53.22 177.26 54.96 174.87 C 56.96 173.30 59.15 171.96 60.90 170.06 C 62.58 168.13 66.41 168.06 66.38 164.93 C 62.26 165.09 65.17 160.38 65.46 158.24 C 65.75 158.53 66.32 159.12 66.60 159.41 C 67.09 160.89 66.06 163.62 67.80 164.23 C 72.73 162.85 76.57 159.14 79.42 155.04 C 79.24 151.40 78.25 147.62 77.11 144.11 C 78.27 144.59 79.45 145.05 80.63 145.50 C 81.83 148.02 81.82 150.81 81.79 153.54 C 83.72 153.24 85.22 151.97 86.73 150.83 C 93.18 146.57 99.31 141.87 105.89 137.80 C 106.05 137.30 106.37 136.30 106.52 135.80 C 104.29 135.57 101.75 136.34 99.78 134.96 C 92.83 134.73 86.16 132.44 79.68 130.09 C 78.68 129.79 77.70 129.44 76.74 129.05 C 70.20 129.05 67.66 122.14 62.35 119.66 C 62.20 116.58 61.86 113.33 63.38 110.51 C 65.94 110.05 68.42 109.08 70.48 107.46 C 73.97 103.50 76.36 98.71 79.86 94.75 C 80.99 93.04 83.15 91.21 82.06 88.97 C 81.67 89.03 80.87 89.15 80.48 89.21 C 78.92 91.57 76.78 93.43 74.69 95.30 C 72.42 96.18 69.91 97.37 67.45 96.48 C 64.08 95.10 61.61 92.14 59.88 89.02 C 59.36 88.90 58.32 88.67 57.80 88.55 M 80.62 124.78 C 80.70 126.71 82.87 127.20 84.12 128.21 C 86.19 128.28 88.27 128.30 90.33 128.09 C 88.75 124.19 84.06 124.54 80.62 124.78 M 108.76 129.69 C 107.57 133.86 112.70 133.37 115.29 133.33 C 115.85 129.65 111.29 129.62 108.76 129.69 M 148.65 137.69 C 142.34 139.67 135.56 140.29 129.05 138.97 C 124.86 150.94 123.60 164.42 115.71 174.75 C 116.91 176.33 118.85 176.81 120.71 177.13 C 123.82 177.68 126.35 179.97 129.56 180.11 C 129.14 179.03 128.70 177.95 128.26 176.88 C 133.05 178.49 137.94 180.90 143.12 180.13 C 145.40 179.95 147.11 177.88 147.47 175.72 C 148.51 165.09 150.48 154.53 153.14 144.18 C 153.79 141.48 155.20 138.92 154.99 136.07 C 152.80 136.30 150.73 137.03 148.65 137.69 M 108.65 156.11 C 108.45 158.05 108.34 160.86 111.09 160.61 C 113.42 157.54 113.83 153.31 114.37 149.55 C 111.08 149.74 108.81 153.03 108.65 156.11 M 119.26 162.44 C 118.84 160.35 120.27 156.84 118.10 155.66 C 114.30 156.27 115.20 163.13 119.26 162.44 M 70.29 167.51 C 69.29 170.37 70.30 173.54 71.89 176.01 C 74.99 180.72 80.40 183.86 86.03 184.17 C 89.14 178.96 92.09 173.61 96.27 169.14 C 90.10 168.81 85.30 164.58 80.72 160.91 C 76.60 161.38 73.58 165.18 70.29 167.51 Z" />
<path fill="#000000" opacity="1.00" d=" M 133.48 143.74 C 138.41 141.43 144.02 139.89 149.49 139.88 C 148.01 142.47 144.93 143.29 142.34 144.31 C 139.52 145.22 135.80 146.23 133.48 143.74 Z" />
<path fill="#000000" opacity="1.00" d=" M 132.12 147.12 C 136.46 146.78 141.21 146.79 144.91 149.44 C 141.31 149.80 137.69 150.17 134.07 150.02 C 132.24 150.37 131.55 148.57 132.12 147.12 Z" />
<path fill="#000000" opacity="1.00" d=" M 132.63 151.92 C 136.85 152.51 141.08 152.53 145.29 151.80 C 143.61 155.87 138.64 155.40 135.07 154.93 C 133.87 154.56 131.40 153.57 132.63 151.92 Z" />
<path fill="#000000" opacity="1.00" d=" M 128.71 161.87 C 132.70 159.22 138.02 161.33 142.36 162.19 C 138.34 164.51 132.66 164.30 128.71 161.87 Z" />
<path fill="#000000" opacity="1.00" d=" M 127.77 168.25 C 130.11 163.82 135.64 166.06 139.43 166.97 C 135.88 168.64 131.54 170.08 127.77 168.25 Z" />
<path fill="#000000" opacity="1.00" d=" M 132.62 172.97 C 135.58 173.21 140.36 172.57 141.30 176.32 C 138.07 176.52 134.51 175.88 132.62 172.97 Z" />
</g>
<g id="#ffffffff">
<path fill="#ffffff" opacity="1.00" d=" M 0.25 0.00 L 49.47 0.00 C 30.66 45.36 21.21 93.76 7.85 140.84 C 6.08 148.67 1.96 155.69 0.00 163.46 L 0.00 0.20 C 0.06 0.15 0.19 0.05 0.25 0.00 Z" />
<path fill="#ffffff" opacity="1.00" d=" M 49.81 0.00 L 249.00 0.00 L 249.00 18.25 C 236.04 17.36 223.03 18.36 210.06 17.88 C 187.81 14.83 165.35 14.04 143.01 11.93 C 132.30 11.29 121.77 8.70 111.02 8.83 C 90.26 7.81 69.43 5.82 49.25 0.60 C 49.39 0.45 49.67 0.15 49.81 0.00 Z" />
<path fill="#ffffff" opacity="1.00" d=" M 247.21 23.27 C 247.68 21.70 248.07 20.07 249.00 18.70 L 249.00 204.00 L 190.35 204.00 C 191.45 203.29 192.66 202.88 193.99 202.77 C 201.43 162.54 209.94 122.24 224.96 84.06 C 228.75 70.78 233.95 57.95 239.48 45.31 C 242.22 38.03 245.17 30.79 247.21 23.27 Z" />
<path fill="#ffffff" opacity="1.00" d=" M 85.60 75.31 C 87.69 76.29 87.44 78.84 85.30 79.57 C 85.03 79.23 84.48 78.54 84.21 78.19 C 84.67 77.23 85.13 76.27 85.60 75.31 Z" />
<path fill="#ffffff" opacity="1.00" d=" M 61.06 83.26 C 64.98 81.38 69.05 79.83 72.98 77.97 C 76.37 80.51 77.36 84.89 80.10 87.98 C 76.91 92.01 71.04 94.27 66.19 91.93 C 62.68 90.59 61.17 86.77 61.06 83.26 Z" />
<path fill="#ffffff" opacity="1.00" d=" M 98.05 81.80 C 98.70 82.11 99.35 82.40 100.00 82.70 C 101.29 87.26 101.06 92.04 101.59 96.71 C 100.39 96.30 99.21 95.86 98.03 95.42 C 97.86 93.46 98.19 91.28 96.99 89.57 C 94.82 90.69 93.60 93.68 95.10 95.81 C 96.79 98.67 99.80 101.17 99.02 104.86 C 97.67 104.36 96.39 103.71 95.06 103.17 C 94.86 101.42 95.38 99.29 93.82 98.01 C 92.74 98.13 91.71 98.44 90.72 98.92 C 91.74 105.80 85.72 111.22 86.25 117.99 C 87.09 116.36 87.93 114.73 88.93 113.20 C 89.49 115.81 90.39 118.38 93.14 119.35 C 94.74 117.08 95.22 113.56 98.08 112.51 C 101.06 114.19 100.47 118.89 103.26 121.00 C 104.58 120.98 105.79 120.38 107.04 120.03 C 108.75 120.99 110.38 122.11 112.17 122.92 C 113.56 123.03 114.61 121.70 115.98 121.52 C 116.90 123.16 116.98 125.07 117.37 126.87 C 102.79 124.82 89.14 118.84 74.67 116.27 C 80.32 108.75 86.26 101.44 91.60 93.68 C 93.98 89.87 96.79 86.19 98.05 81.80 Z" />
<path fill="#ffffff" opacity="1.00" d=" M 148.65 137.69 C 150.73 137.03 152.80 136.30 154.99 136.07 C 155.20 138.92 153.79 141.48 153.14 144.18 C 150.48 154.53 148.51 165.09 147.47 175.72 C 147.11 177.88 145.40 179.95 143.12 180.13 C 137.94 180.90 133.05 178.49 128.26 176.88 C 128.70 177.95 129.14 179.03 129.56 180.11 C 126.35 179.97 123.82 177.68 120.71 177.13 C 118.85 176.81 116.91 176.33 115.71 174.75 C 123.60 164.42 124.86 150.94 129.05 138.97 C 135.56 140.29 142.34 139.67 148.65 137.69 M 133.48 143.74 C 135.80 146.23 139.52 145.22 142.34 144.31 C 144.93 143.29 148.01 142.47 149.49 139.88 C 144.02 139.89 138.41 141.43 133.48 143.74 M 132.12 147.12 C 131.55 148.57 132.24 150.37 134.07 150.02 C 137.69 150.17 141.31 149.80 144.91 149.44 C 141.21 146.79 136.46 146.78 132.12 147.12 M 132.63 151.92 C 131.40 153.57 133.87 154.56 135.07 154.93 C 138.64 155.40 143.61 155.87 145.29 151.80 C 141.08 152.53 136.85 152.51 132.63 151.92 M 128.71 161.87 C 132.66 164.30 138.34 164.51 142.36 162.19 C 138.02 161.33 132.70 159.22 128.71 161.87 M 127.77 168.25 C 131.54 170.08 135.88 168.64 139.43 166.97 C 135.64 166.06 130.11 163.82 127.77 168.25 M 132.62 172.97 C 134.51 175.88 138.07 176.52 141.30 176.32 C 140.36 172.57 135.58 173.21 132.62 172.97 Z" />
<path fill="#ffffff" opacity="1.00" d=" M 0.00 168.10 L 0.01 167.37 C 0.52 169.37 2.64 169.33 4.27 169.76 C 14.19 171.58 23.05 176.61 32.01 180.97 C 34.93 182.45 38.08 183.60 40.55 185.83 C 41.02 185.91 41.96 186.08 42.44 186.16 C 43.78 186.76 45.16 187.25 46.54 187.77 C 50.70 188.45 54.90 189.44 58.46 191.82 C 58.95 191.93 59.92 192.13 60.41 192.23 C 61.46 192.60 62.51 192.94 63.58 193.26 C 64.54 193.78 65.49 194.31 66.45 194.84 C 66.94 194.94 67.93 195.14 68.43 195.24 C 70.13 195.79 71.88 196.20 73.58 196.78 C 74.08 196.86 75.08 197.04 75.59 197.12 C 76.54 197.73 77.49 198.33 78.45 198.94 C 81.33 198.92 84.26 198.86 87.04 199.74 C 95.64 201.31 104.43 200.87 113.09 201.90 C 125.74 202.21 138.42 201.79 151.08 202.09 C 156.57 203.70 162.35 202.78 167.98 202.99 C 170.94 203.17 174.18 202.32 176.85 204.00 L 0.00 204.00 L 0.00 168.10 Z" />
</g>
<g id="#eee3b0ff">
<path fill="#eee3b0" opacity="1.00" d=" M 32.23 62.18 C 37.80 42.87 43.43 23.47 51.47 5.01 C 68.94 11.22 87.69 11.57 105.97 12.95 C 114.35 12.69 122.61 14.51 131.00 14.00 C 131.01 14.50 131.03 15.50 131.04 16.00 C 133.02 16.00 135.00 16.00 136.99 16.00 C 137.02 16.45 137.07 17.36 137.10 17.81 C 150.87 16.65 164.82 17.82 178.33 20.70 C 182.00 21.28 185.74 20.83 189.44 21.06 C 191.65 22.73 194.52 21.63 197.04 21.72 C 211.74 22.40 226.64 21.37 241.19 24.11 C 240.20 30.02 238.58 35.80 236.67 41.47 C 238.58 41.92 239.13 43.60 239.48 45.31 C 238.05 45.44 236.62 45.42 235.21 45.15 C 232.19 53.60 228.06 61.63 225.28 70.16 C 223.98 80.35 219.03 89.46 214.60 98.54 C 213.48 110.96 207.18 121.98 203.87 133.84 C 202.48 138.48 202.49 143.39 201.23 148.06 C 196.44 165.25 194.97 183.19 189.91 200.31 C 174.34 195.82 158.05 197.05 142.06 196.83 C 136.70 196.83 131.38 195.94 126.02 195.93 C 120.61 195.84 115.27 197.27 109.86 196.62 C 90.86 195.54 73.05 188.27 54.73 183.80 C 55.63 178.41 60.09 173.88 65.11 172.04 C 69.52 171.76 68.78 177.62 70.93 180.11 C 75.87 186.26 84.43 186.74 91.17 189.86 C 95.73 184.69 97.30 177.73 97.36 171.00 C 96.95 168.83 99.18 167.76 101.02 167.94 C 105.19 167.55 107.94 171.19 110.41 173.95 C 113.61 171.73 113.75 167.34 116.70 164.97 C 116.39 168.79 115.27 172.47 113.98 176.06 C 117.86 179.15 122.23 182.02 127.34 182.37 C 133.48 182.90 139.60 184.70 145.79 183.80 C 149.97 182.53 150.05 177.63 150.10 174.06 C 151.76 159.68 156.72 145.97 159.55 131.82 C 148.55 134.11 137.40 135.66 126.15 135.95 C 124.43 140.49 124.36 145.41 123.07 150.05 C 122.49 152.54 119.59 153.25 117.36 152.98 C 116.50 150.93 115.65 148.88 114.80 146.83 C 111.63 146.53 108.43 148.15 107.22 151.18 C 105.35 155.74 105.45 160.80 104.78 165.62 C 97.22 166.19 88.21 165.12 83.62 158.27 C 93.18 149.51 104.46 142.94 115.79 136.75 C 118.35 135.49 120.48 133.04 120.34 130.04 C 120.26 123.68 115.87 118.12 116.96 111.61 C 116.21 111.69 114.73 111.85 113.98 111.92 C 113.56 114.85 115.01 118.46 113.05 120.93 C 107.69 119.42 107.23 112.92 103.51 109.60 C 103.06 110.78 102.61 111.96 102.17 113.14 C 100.00 111.93 97.69 110.98 95.33 110.22 C 94.75 111.85 93.90 113.35 92.84 114.71 C 91.00 110.89 94.76 107.04 94.90 103.11 C 95.56 103.90 96.20 104.70 96.83 105.52 C 97.56 105.31 98.29 105.09 99.02 104.86 C 99.73 104.91 101.16 105.02 101.87 105.08 C 102.02 103.15 102.08 101.22 102.11 99.29 C 99.99 99.38 98.23 98.55 97.14 96.64 C 100.01 96.56 102.89 97.22 105.74 96.79 C 105.89 96.35 106.19 95.46 106.34 95.01 C 105.70 89.34 100.67 85.66 99.07 80.37 C 99.28 79.75 99.71 78.51 99.93 77.89 C 99.99 73.01 101.64 68.18 100.77 63.30 C 99.93 61.13 98.77 59.10 97.76 57.01 C 97.07 57.01 95.69 57.00 95.00 57.00 C 94.99 56.50 94.98 55.51 94.97 55.01 C 81.06 53.83 67.60 61.75 60.53 73.52 C 56.71 79.41 54.91 86.31 54.23 93.23 C 51.53 113.84 45.93 133.91 42.29 154.35 C 41.89 156.76 42.17 159.22 41.80 161.63 C 40.80 162.59 39.41 162.93 38.17 163.45 C 36.28 167.67 37.36 172.39 36.42 176.82 C 25.35 173.03 14.94 167.54 3.79 163.93 C 14.94 130.50 22.76 96.10 32.23 62.18 Z" />
<path fill="#eee3b0" opacity="1.00" d=" M 70.29 167.51 C 73.58 165.18 76.60 161.38 80.72 160.91 C 85.30 164.58 90.10 168.81 96.27 169.14 C 92.09 173.61 89.14 178.96 86.03 184.17 C 80.40 183.86 74.99 180.72 71.89 176.01 C 70.30 173.54 69.29 170.37 70.29 167.51 Z" />
</g>
<g id="#004000ff">
<path fill="#004000" opacity="1.00" d=" M 81.11 59.80 C 87.69 58.91 94.96 60.90 98.27 67.12 C 98.64 69.99 97.90 72.74 96.27 75.11 C 96.17 77.07 97.05 79.88 94.75 80.89 C 92.71 81.98 90.39 84.04 87.96 83.11 C 87.70 81.01 89.11 79.08 88.78 76.97 C 88.41 73.44 86.50 70.31 84.29 67.63 C 83.42 66.94 82.53 66.26 81.63 65.60 C 80.13 65.08 77.65 65.03 77.21 63.18 C 78.06 61.61 79.71 60.79 81.11 59.80 Z" />
<path fill="#004000" opacity="1.00" d=" M 76.02 66.66 C 76.84 66.69 78.48 66.76 79.31 66.80 C 79.27 67.62 79.19 69.28 79.16 70.11 C 78.00 70.21 76.83 70.32 75.67 70.42 C 74.66 71.18 73.65 71.95 72.65 72.73 C 70.89 76.05 67.23 77.35 63.80 78.15 C 63.58 74.35 67.20 72.61 69.23 70.03 C 69.77 69.89 70.84 69.61 71.37 69.47 C 72.41 69.06 73.46 68.71 74.54 68.41 C 74.91 67.97 75.65 67.10 76.02 66.66 Z" />
<path fill="#004000" opacity="1.00" d=" M 57.80 88.55 C 58.32 88.67 59.36 88.90 59.88 89.02 C 61.61 92.14 64.08 95.10 67.45 96.48 C 69.91 97.37 72.42 96.18 74.69 95.30 C 76.78 93.43 78.92 91.57 80.48 89.21 C 80.87 89.15 81.67 89.03 82.06 88.97 C 83.15 91.21 80.99 93.04 79.86 94.75 C 76.36 98.71 73.97 103.50 70.48 107.46 C 68.42 109.08 65.94 110.05 63.38 110.51 C 61.86 113.33 62.20 116.58 62.35 119.66 C 67.66 122.14 70.20 129.05 76.74 129.05 C 77.70 129.44 78.68 129.79 79.68 130.09 C 86.16 132.44 92.83 134.73 99.78 134.96 C 101.75 136.34 104.29 135.57 106.52 135.80 C 106.37 136.30 106.05 137.30 105.89 137.80 C 99.31 141.87 93.18 146.57 86.73 150.83 C 85.22 151.97 83.72 153.24 81.79 153.54 C 81.82 150.81 81.83 148.02 80.63 145.50 C 79.45 145.05 78.27 144.59 77.11 144.11 C 78.25 147.62 79.24 151.40 79.42 155.04 C 76.57 159.14 72.73 162.85 67.80 164.23 C 66.06 163.62 67.09 160.89 66.60 159.41 C 66.32 159.12 65.75 158.53 65.46 158.24 C 65.17 160.38 62.26 165.09 66.38 164.93 C 66.41 168.06 62.58 168.13 60.90 170.06 C 59.15 171.96 56.96 173.30 54.96 174.87 C 53.22 177.26 51.06 179.41 49.93 182.19 C 45.60 182.87 39.58 180.86 38.89 175.98 C 40.45 175.84 42.02 175.72 43.59 175.59 C 44.22 171.53 43.10 167.34 44.33 163.37 C 45.68 155.64 46.62 147.92 48.09 140.20 C 49.33 135.26 50.26 130.19 51.00 125.16 C 51.87 123.65 51.85 121.88 52.10 120.21 C 52.96 118.68 52.71 116.86 52.90 115.18 C 54.14 113.82 53.64 111.84 54.00 110.19 C 55.51 105.03 56.44 99.56 56.94 94.18 C 58.24 92.59 57.63 90.42 57.80 88.55 Z" />
<path fill="#004000" opacity="1.00" d=" M 80.62 124.78 C 84.06 124.54 88.75 124.19 90.33 128.09 C 88.27 128.30 86.19 128.28 84.12 128.21 C 82.87 127.20 80.70 126.71 80.62 124.78 Z" />
<path fill="#004000" opacity="1.00" d=" M 108.76 129.69 C 111.29 129.62 115.85 129.65 115.29 133.33 C 112.70 133.37 107.57 133.86 108.76 129.69 Z" />
<path fill="#004000" opacity="1.00" d=" M 108.65 156.11 C 108.81 153.03 111.08 149.74 114.37 149.55 C 113.83 153.31 113.42 157.54 111.09 160.61 C 108.34 160.86 108.45 158.05 108.65 156.11 Z" />
<path fill="#004000" opacity="1.00" d=" M 119.26 162.44 C 115.20 163.13 114.30 156.27 118.10 155.66 C 120.27 156.84 118.84 160.35 119.26 162.44 Z" />
</g>
</svg>
