<?xml version="1.0" encoding="UTF-8" ?>
<!DOCTYPE svg PUBLIC "-//W3C//DTD SVG 1.1//EN" "http://www.w3.org/Graphics/SVG/1.1/DTD/svg11.dtd">
<svg width="301pt" height="252pt" viewBox="0 0 301 252" version="1.1" xmlns="http://www.w3.org/2000/svg">
<g id="#ffffffff">
<path fill="#ffffff" opacity="1.00" d=" M 0.00 0.00 L 79.73 0.00 C 62.19 33.94 51.68 70.86 40.41 107.20 C 33.17 138.31 20.47 167.73 10.98 198.14 C 9.75 201.53 7.95 204.71 7.14 208.25 C 5.44 214.96 4.47 222.19 0.00 227.77 L 0.00 0.00 Z" />
<path fill="#ffffff" opacity="1.00" d=" M 81.23 0.00 L 301.00 0.00 L 301.00 252.00 L 0.00 252.00 L 0.00 227.98 C 0.81 228.60 1.63 229.22 2.44 229.84 C 18.39 226.43 34.78 227.96 50.95 227.11 C 54.82 227.10 58.79 226.57 62.60 227.47 C 65.32 228.15 66.73 230.72 67.74 233.10 C 68.95 231.11 69.46 228.64 70.96 226.87 C 85.12 230.09 99.79 229.60 114.00 232.46 C 118.03 232.97 122.10 232.83 126.14 233.21 C 143.96 235.22 161.16 240.80 178.97 242.94 C 199.26 243.82 218.77 250.69 239.08 251.42 C 244.62 208.07 256.95 165.70 274.85 125.86 C 285.93 102.27 285.09 74.50 299.10 52.09 C 299.98 50.60 301.49 47.68 298.88 47.03 C 289.44 44.64 279.59 45.12 269.97 44.08 C 260.55 44.02 251.25 42.39 241.87 41.64 C 205.82 37.54 171.76 23.91 136.02 18.17 C 132.27 17.65 128.46 17.29 124.87 16.00 C 110.19 11.03 95.88 5.05 81.23 0.00 Z" />
<path fill="#ffffff" opacity="1.00" d=" M 287.10 71.60 C 286.77 69.31 287.77 66.64 290.04 65.77 C 292.09 67.83 289.38 71.03 287.10 71.60 Z" />
<path fill="#ffffff" opacity="1.00" d=" M 102.54 72.96 C 108.92 74.25 110.70 81.38 114.75 85.54 C 111.03 84.36 106.31 84.30 103.56 87.52 C 101.20 89.87 101.81 93.48 102.31 96.44 C 103.48 101.45 107.94 104.54 110.69 108.62 C 110.67 108.80 110.62 109.17 110.60 109.35 C 104.46 111.54 96.89 111.47 91.98 106.66 C 91.87 103.13 92.36 99.63 92.85 96.14 C 88.81 97.92 90.75 103.21 88.38 106.28 C 87.57 101.29 86.08 95.96 88.05 91.06 C 90.88 83.65 97.19 78.51 102.54 72.96 Z" />
<path fill="#ffffff" opacity="1.00" d=" M 132.89 108.08 C 136.10 103.86 136.95 98.18 141.06 94.56 C 147.36 100.34 152.02 107.74 155.82 115.35 C 150.40 121.62 143.27 126.28 135.58 129.29 C 124.37 133.78 112.29 135.27 100.42 136.95 C 109.33 128.69 117.72 119.87 126.76 111.74 C 128.47 109.96 131.39 110.13 132.89 108.08 Z" />
<path fill="#ffffff" opacity="1.00" d=" M 109.21 96.07 C 110.89 95.76 113.16 98.04 111.43 99.39 C 109.45 101.03 109.00 97.41 109.21 96.07 Z" />
<path fill="#ffffff" opacity="1.00" d=" M 144.38 131.28 C 149.19 128.39 153.12 124.35 157.47 120.87 C 162.04 132.37 162.49 144.90 164.74 156.95 C 145.89 153.72 127.03 149.63 109.20 142.57 C 114.40 138.00 121.58 137.60 128.09 136.54 C 133.63 135.24 139.50 134.44 144.38 131.28 Z" />
<path fill="#ffffff" opacity="1.00" d=" M 86.36 145.40 C 87.71 145.11 90.00 144.82 90.07 146.82 C 89.32 149.49 85.22 147.69 86.36 145.40 Z" />
<path fill="#ffffff" opacity="1.00" d=" M 119.15 155.21 C 123.45 155.43 128.10 156.14 131.25 159.37 C 127.07 158.79 122.30 158.36 119.15 155.21 Z" />
</g>
<g id="#000000ff">
<path fill="#000000" opacity="1.00" d=" M 79.73 0.00 L 81.23 0.00 C 95.88 5.05 110.19 11.03 124.87 16.00 C 128.46 17.29 132.27 17.65 136.02 18.17 C 171.76 23.91 205.82 37.54 241.87 41.64 C 251.25 42.39 260.55 44.02 269.97 44.08 C 279.59 45.12 289.44 44.64 298.88 47.03 C 301.49 47.68 299.98 50.60 299.10 52.09 C 285.09 74.50 285.93 102.27 274.85 125.86 C 256.95 165.70 244.62 208.07 239.08 251.42 C 218.77 250.69 199.26 243.82 178.97 242.94 C 161.16 240.80 143.96 235.22 126.14 233.21 C 122.10 232.83 118.03 232.97 114.00 232.46 C 99.79 229.60 85.12 230.09 70.96 226.87 C 69.46 228.64 68.95 231.11 67.74 233.10 C 66.73 230.72 65.32 228.15 62.60 227.47 C 58.79 226.57 54.82 227.10 50.95 227.11 C 34.78 227.96 18.39 226.43 2.44 229.84 C 1.63 229.22 0.81 228.60 0.00 227.98 L 0.00 227.77 C 4.47 222.19 5.44 214.96 7.14 208.25 C 7.95 204.71 9.75 201.53 10.98 198.14 C 20.47 167.73 33.17 138.31 40.41 107.20 C 51.68 70.86 62.19 33.94 79.73 0.00 M 82.25 5.53 C 53.61 62.75 42.32 126.40 19.51 185.84 C 15.80 198.14 9.02 209.80 9.03 222.97 C 14.74 223.11 20.52 223.30 26.16 222.19 C 28.86 221.66 31.78 222.50 34.38 221.62 C 36.02 211.54 36.41 200.98 40.46 191.41 C 49.72 170.29 52.34 146.74 63.26 126.29 C 72.24 110.83 78.19 93.59 89.24 79.36 C 95.05 71.73 102.76 65.53 111.63 61.79 C 119.40 58.49 127.40 54.21 136.11 55.05 C 140.54 55.49 144.43 58.28 146.94 61.86 C 148.20 69.72 148.73 78.06 145.48 85.53 C 144.80 87.11 143.27 88.81 144.41 90.56 C 147.34 97.20 152.69 102.28 156.80 108.15 C 158.22 110.26 160.00 112.32 160.12 114.98 L 160.82 115.06 C 161.90 117.38 161.31 120.36 162.93 122.37 C 162.95 123.03 162.99 124.34 163.01 125.00 C 163.51 125.00 164.50 125.01 165.00 125.01 C 165.00 125.76 165.00 127.25 165.00 128.00 L 166.11 128.04 C 165.93 128.91 165.56 130.67 165.38 131.55 C 165.77 131.59 166.55 131.68 166.93 131.72 C 167.38 136.15 166.11 140.59 166.99 144.99 C 167.41 148.04 168.75 151.21 167.41 154.22 C 165.82 157.21 168.59 159.90 171.20 160.88 C 174.07 162.05 177.90 163.92 176.93 167.73 C 162.27 171.53 148.97 179.16 134.72 184.14 C 134.80 184.92 134.97 186.49 135.05 187.28 C 133.51 187.14 131.98 187.01 130.44 186.89 C 141.54 199.64 159.97 202.02 175.92 200.74 C 175.97 194.94 171.88 189.81 172.37 183.99 C 173.04 180.89 176.12 176.98 179.63 178.34 C 182.06 180.00 183.83 182.63 184.22 185.58 C 187.02 184.78 187.94 181.07 190.97 180.88 C 193.94 180.34 195.32 183.62 196.26 185.83 C 198.36 190.40 196.63 197.23 191.06 198.10 C 187.23 199.00 187.13 204.63 183.11 205.09 C 163.10 209.11 140.75 204.43 125.72 190.11 C 119.25 193.65 114.07 199.02 108.04 203.21 C 106.73 204.14 105.13 204.75 104.11 206.05 C 102.74 213.48 107.27 220.95 113.92 224.14 C 118.81 226.43 124.76 228.10 129.97 225.89 C 133.33 222.24 133.25 216.66 136.49 212.88 C 137.55 213.33 138.62 213.77 139.71 214.18 C 142.49 218.45 140.46 223.95 138.07 227.93 C 158.72 235.89 181.09 237.03 202.72 240.59 C 208.47 236.56 214.39 244.05 220.39 241.49 C 225.84 238.66 230.74 246.42 235.97 242.75 C 237.06 227.59 240.45 212.64 244.19 197.91 C 252.65 166.22 265.29 135.88 277.71 105.60 C 281.22 87.37 283.09 68.00 293.44 52.04 C 288.41 50.45 283.06 51.47 277.95 50.39 C 267.63 49.53 257.31 48.79 246.97 48.07 C 241.77 47.71 236.47 48.45 231.32 47.65 C 220.64 42.53 208.77 40.74 197.05 40.07 L 197.00 39.00 C 195.66 39.00 194.33 39.00 193.01 39.00 C 193.01 38.50 193.00 37.50 193.00 37.00 C 190.66 37.00 188.33 37.00 185.99 36.94 C 185.39 36.28 184.72 35.72 183.97 35.26 C 167.93 29.65 151.32 25.44 134.39 23.78 C 123.69 21.30 113.81 16.13 103.01 14.03 C 95.42 12.88 89.93 6.36 82.25 5.53 M 121.61 63.08 C 123.36 65.77 126.66 66.91 128.41 69.62 C 132.04 73.98 133.72 79.43 135.97 84.53 C 141.20 82.35 143.07 76.12 143.91 70.97 C 144.07 68.39 144.94 65.16 142.99 63.06 C 139.87 61.57 136.50 60.32 133.04 60.02 C 129.26 61.13 125.41 62.01 121.61 63.08 M 287.10 71.60 C 289.38 71.03 292.09 67.83 290.04 65.77 C 287.77 66.64 286.77 69.31 287.10 71.60 M 108.78 69.23 C 109.13 72.49 111.54 74.97 113.18 77.66 C 117.78 83.91 122.45 90.11 127.18 96.25 C 132.41 92.99 132.96 86.13 131.60 80.69 C 129.82 75.16 125.79 70.10 120.23 68.08 C 116.40 67.46 112.41 67.88 108.78 69.23 M 102.54 72.96 C 97.19 78.51 90.88 83.65 88.05 91.06 C 86.08 95.96 87.57 101.29 88.38 106.28 C 90.75 103.21 88.81 97.92 92.85 96.14 C 92.36 99.63 91.87 103.13 91.98 106.66 C 96.89 111.47 104.46 111.54 110.60 109.35 C 110.62 109.17 110.67 108.80 110.69 108.62 C 107.94 104.54 103.48 101.45 102.31 96.44 C 101.81 93.48 101.20 89.87 103.56 87.52 C 106.31 84.30 111.03 84.36 114.75 85.54 C 110.70 81.38 108.92 74.25 102.54 72.96 M 132.89 108.08 C 131.39 110.13 128.47 109.96 126.76 111.74 C 117.72 119.87 109.33 128.69 100.42 136.95 C 112.29 135.27 124.37 133.78 135.58 129.29 C 143.27 126.28 150.40 121.62 155.82 115.35 C 152.02 107.74 147.36 100.34 141.06 94.56 C 136.95 98.18 136.10 103.86 132.89 108.08 M 109.21 96.07 C 109.00 97.41 109.45 101.03 111.43 99.39 C 113.16 98.04 110.89 95.76 109.21 96.07 M 81.27 99.44 C 71.26 120.20 59.58 140.49 54.01 163.04 C 50.50 176.02 45.03 188.43 42.38 201.65 C 41.82 205.01 41.46 208.42 40.61 211.73 C 37.38 214.59 36.38 219.27 38.00 223.26 C 48.04 220.74 58.53 222.72 68.74 221.90 C 78.43 215.63 89.65 211.72 98.29 203.85 C 97.90 202.25 97.12 200.75 96.99 199.11 C 97.79 197.15 100.05 196.89 101.89 197.05 C 102.05 197.68 102.38 198.94 102.54 199.56 C 110.13 197.70 115.67 191.56 121.41 186.63 C 118.08 181.17 109.87 180.17 108.55 173.34 C 115.61 172.90 118.84 181.16 125.05 183.08 C 127.54 183.73 129.56 181.81 131.65 180.83 C 142.72 175.36 154.17 170.65 165.87 166.72 C 165.99 166.24 166.25 165.29 166.37 164.81 C 160.91 165.41 155.45 166.28 149.96 166.57 C 145.74 165.71 141.38 166.06 137.19 165.03 C 123.65 162.33 110.91 156.79 97.64 153.11 C 92.63 152.95 86.76 151.51 84.01 146.90 C 83.86 143.88 85.91 141.34 86.91 138.60 C 90.44 130.56 98.72 125.88 102.38 117.99 C 100.26 117.97 98.14 118.09 96.03 117.84 C 90.36 115.54 87.00 109.94 84.59 104.60 C 83.46 102.44 84.56 99.99 84.56 97.70 C 82.92 97.46 81.83 98.04 81.27 99.44 M 144.38 131.28 C 139.50 134.44 133.63 135.24 128.09 136.54 C 121.58 137.60 114.40 138.00 109.20 142.57 C 127.03 149.63 145.89 153.72 164.74 156.95 C 162.49 144.90 162.04 132.37 157.47 120.87 C 153.12 124.35 149.19 128.39 144.38 131.28 M 86.36 145.40 C 85.22 147.69 89.32 149.49 90.07 146.82 C 90.00 144.82 87.71 145.11 86.36 145.40 M 119.15 155.21 C 122.30 158.36 127.07 158.79 131.25 159.37 C 128.10 156.14 123.45 155.43 119.15 155.21 M 187.86 195.01 C 192.72 194.90 193.57 189.46 193.10 185.70 C 192.56 185.63 191.48 185.49 190.94 185.42 C 188.38 187.62 187.86 191.76 187.86 195.01 M 177.98 187.86 C 177.90 190.33 177.87 192.80 177.93 195.27 C 181.46 195.56 179.61 191.12 180.13 188.96 C 179.59 188.69 178.52 188.14 177.98 187.86 M 95.59 211.60 C 89.41 215.03 83.26 218.59 77.71 222.98 C 87.23 222.99 96.70 224.17 106.22 224.14 C 103.62 220.69 103.79 216.07 101.58 212.45 C 100.42 210.26 97.41 210.34 95.59 211.60 Z" />
<path fill="#000000" opacity="1.00" d=" M 139.14 190.98 C 140.78 190.42 141.37 190.95 140.92 192.55 C 139.26 193.10 138.67 192.57 139.14 190.98 Z" />
</g>
<g id="#eee3b0ff">
<path fill="#eee3b0" opacity="1.00" d=" M 82.25 5.53 C 89.93 6.36 95.42 12.88 103.01 14.03 C 113.81 16.13 123.69 21.30 134.39 23.78 C 151.32 25.44 167.93 29.65 183.97 35.26 C 184.72 35.72 185.39 36.28 185.99 36.94 C 188.33 37.00 190.66 37.00 193.00 37.00 C 193.00 37.50 193.01 38.50 193.01 39.00 C 194.33 39.00 195.66 39.00 197.00 39.00 L 197.05 40.07 C 208.77 40.74 220.64 42.53 231.32 47.65 C 236.47 48.45 241.77 47.71 246.97 48.07 C 257.31 48.79 267.63 49.53 277.95 50.39 C 283.06 51.47 288.41 50.45 293.44 52.04 C 283.09 68.00 281.22 87.37 277.71 105.60 C 265.29 135.88 252.65 166.22 244.19 197.91 C 240.45 212.64 237.06 227.59 235.97 242.75 C 230.74 246.42 225.84 238.66 220.39 241.49 C 214.39 244.05 208.47 236.56 202.72 240.59 C 181.09 237.03 158.72 235.89 138.07 227.93 C 140.46 223.95 142.49 218.45 139.71 214.18 C 138.62 213.77 137.55 213.33 136.49 212.88 C 133.25 216.66 133.33 222.24 129.97 225.89 C 124.76 228.10 118.81 226.43 113.92 224.14 C 107.27 220.95 102.74 213.48 104.11 206.05 C 105.13 204.75 106.73 204.14 108.04 203.21 C 114.07 199.02 119.25 193.65 125.72 190.11 C 140.75 204.43 163.10 209.11 183.11 205.09 C 187.13 204.63 187.23 199.00 191.06 198.10 C 196.63 197.23 198.36 190.40 196.26 185.83 C 195.32 183.62 193.94 180.34 190.97 180.88 C 187.94 181.07 187.02 184.78 184.22 185.58 C 183.83 182.63 182.06 180.00 179.63 178.34 C 176.12 176.98 173.04 180.89 172.37 183.99 C 171.88 189.81 175.97 194.94 175.92 200.74 C 159.97 202.02 141.54 199.64 130.44 186.89 C 131.98 187.01 133.51 187.14 135.05 187.28 C 134.97 186.49 134.80 184.92 134.72 184.14 C 148.97 179.16 162.27 171.53 176.93 167.73 C 177.90 163.92 174.07 162.05 171.20 160.88 C 168.59 159.90 165.82 157.21 167.41 154.22 C 168.75 151.21 167.41 148.04 166.99 144.99 C 166.11 140.59 167.38 136.15 166.93 131.72 C 166.55 131.68 165.77 131.59 165.38 131.55 C 165.56 130.67 165.93 128.91 166.11 128.04 L 165.00 128.00 C 165.00 127.25 165.00 125.76 165.00 125.01 C 164.50 125.01 163.51 125.00 163.01 125.00 C 162.99 124.34 162.95 123.03 162.93 122.37 C 161.31 120.36 161.90 117.38 160.82 115.06 L 160.12 114.98 C 160.00 112.32 158.22 110.26 156.80 108.15 C 152.69 102.28 147.34 97.20 144.41 90.56 C 143.27 88.81 144.80 87.11 145.48 85.53 C 148.73 78.06 148.20 69.72 146.94 61.86 C 144.43 58.28 140.54 55.49 136.11 55.05 C 127.40 54.21 119.40 58.49 111.63 61.79 C 102.76 65.53 95.05 71.73 89.24 79.36 C 78.19 93.59 72.24 110.83 63.26 126.29 C 52.34 146.74 49.72 170.29 40.46 191.41 C 36.41 200.98 36.02 211.54 34.38 221.62 C 31.78 222.50 28.86 221.66 26.16 222.19 C 20.52 223.30 14.74 223.11 9.03 222.97 C 9.02 209.80 15.80 198.14 19.51 185.84 C 42.32 126.40 53.61 62.75 82.25 5.53 M 139.14 190.98 C 138.67 192.57 139.26 193.10 140.92 192.55 C 141.37 190.95 140.78 190.42 139.14 190.98 Z" />
<path fill="#eee3b0" opacity="1.00" d=" M 95.59 211.60 C 97.41 210.34 100.42 210.26 101.58 212.45 C 103.79 216.07 103.62 220.69 106.22 224.14 C 96.70 224.17 87.23 222.99 77.71 222.98 C 83.26 218.59 89.41 215.03 95.59 211.60 Z" />
</g>
<g id="#004000ff">
<path fill="#004000" opacity="1.00" d=" M 121.61 63.08 C 125.41 62.01 129.26 61.13 133.04 60.02 C 136.50 60.32 139.87 61.57 142.99 63.06 C 144.94 65.16 144.07 68.39 143.91 70.97 C 143.07 76.12 141.20 82.35 135.97 84.53 C 133.72 79.43 132.04 73.98 128.41 69.62 C 126.66 66.91 123.36 65.77 121.61 63.08 Z" />
<path fill="#004000" opacity="1.00" d=" M 108.78 69.23 C 112.41 67.88 116.40 67.46 120.23 68.08 C 125.79 70.10 129.82 75.16 131.60 80.69 C 132.96 86.13 132.41 92.99 127.18 96.25 C 122.45 90.11 117.78 83.91 113.18 77.66 C 111.54 74.97 109.13 72.49 108.78 69.23 Z" />
<path fill="#004000" opacity="1.00" d=" M 81.27 99.44 C 81.83 98.04 82.92 97.46 84.56 97.70 C 84.56 99.99 83.46 102.44 84.59 104.60 C 87.00 109.94 90.36 115.54 96.03 117.84 C 98.14 118.09 100.26 117.97 102.38 117.99 C 98.72 125.88 90.44 130.56 86.91 138.60 C 85.91 141.34 83.86 143.88 84.01 146.90 C 86.76 151.51 92.63 152.95 97.64 153.11 C 110.91 156.79 123.65 162.33 137.19 165.03 C 141.38 166.06 145.74 165.71 149.96 166.57 C 155.45 166.28 160.91 165.41 166.37 164.81 C 166.25 165.29 165.99 166.24 165.87 166.72 C 154.17 170.65 142.72 175.36 131.65 180.83 C 129.56 181.81 127.54 183.73 125.05 183.08 C 118.84 181.16 115.61 172.90 108.55 173.34 C 109.87 180.17 118.08 181.17 121.41 186.63 C 115.67 191.56 110.13 197.70 102.54 199.56 C 102.38 198.94 102.05 197.68 101.89 197.05 C 100.05 196.89 97.79 197.15 96.99 199.11 C 97.12 200.75 97.90 202.25 98.29 203.85 C 89.65 211.72 78.43 215.63 68.74 221.90 C 58.53 222.72 48.04 220.74 38.00 223.26 C 36.38 219.27 37.38 214.59 40.61 211.73 C 41.46 208.42 41.82 205.01 42.38 201.65 C 45.03 188.43 50.50 176.02 54.01 163.04 C 59.58 140.49 71.26 120.20 81.27 99.44 Z" />
<path fill="#004000" opacity="1.00" d=" M 187.86 195.01 C 187.86 191.76 188.38 187.62 190.94 185.42 C 191.48 185.49 192.56 185.63 193.10 185.70 C 193.57 189.46 192.72 194.90 187.86 195.01 Z" />
<path fill="#004000" opacity="1.00" d=" M 177.98 187.86 C 178.52 188.14 179.59 188.69 180.13 188.96 C 179.61 191.12 181.46 195.56 177.93 195.27 C 177.87 192.80 177.90 190.33 177.98 187.86 Z" />
</g>
</svg>
